%YAML 1.1
%TAG !u! tag:unity3d.com,2011:
--- !u!114 &11400000
MonoBehaviour:
  m_ObjectHideFlags: 0
  m_CorrespondingSourceObject: {fileID: 0}
  m_PrefabInstance: {fileID: 0}
  m_PrefabAsset: {fileID: 0}
  m_GameObject: {fileID: 0}
  m_Enabled: 1
  m_EditorHideFlags: 0
  m_Script: {fileID: 11500000, guid: a73ee7ed24047554983a3f53127b013e, type: 3}
  m_Name: Scrap
  m_EditorClassIdentifier: 
  name: Scrap
  sprite: {fileID: 21300000, guid: 22c7c6be534365c40ad8e5028c3ed051, type: 3}
  image: {fileID: 21300000, guid: 22c7c6be534365c40ad8e5028c3ed051, type: 3}
  amount: 0
