%YAML 1.1
%TAG !u! tag:unity3d.com,2011:
--- !u!114 &11400000
MonoBehaviour:
  m_ObjectHideFlags: 0
  m_CorrespondingSourceObject: {fileID: 0}
  m_PrefabInstance: {fileID: 0}
  m_PrefabAsset: {fileID: 0}
  m_GameObject: {fileID: 0}
  m_Enabled: 1
  m_EditorHideFlags: 0
  m_Script: {fileID: 11500000, guid: a73ee7ed24047554983a3f53127b013e, type: 3}
  m_Name: Slave
  m_EditorClassIdentifier: 
  name: Slave
  description: 
  image: {fileID: 10905, guid: 0000000000000000f000000000000000, type: 0}
  amount: 0
  maxAmount: 0
